1a9ed4f6fb811f42af96e25a8790e03e app16/Balabanov/sat_prob_143.cnf
2c1d615bd2f4f27cae0290169b080bfc app16/Balabanov/sat_prob_23.cnf
6898d4399dbdd322b02f713ba128f2be app16/Balabanov/sat_prob_3.cnf
0ef1d2e2723023ae8517bf0214954b55 app16/Balabanov/sat_prob_63.cnf
6d01afd3d6f889e5d133ea46116e0f99 app16/Balabanov/sat_prob_83.cnf
5b2878e66ffd571ffece85afddcbf61e app16/Balyo/barman-pfile06-022.sas.ex.7.cnf
cb29352f043a2c4eeca2bf3d2819448b app16/Balyo/barman-pfile07-027.sas.cr.37.cnf
143b62dd4703273ba20dfd42be63d7c7 app16/Balyo/barman-pfile07-028.sas.ex.15.cnf
cb19d8ad6026d168f242f4bd9fa6d2e1 app16/Balyo/barman-pfile08-030.sas.cr.27.cnf
6dbf2b5c79dc61d390aa3d5f7761d41c app16/Balyo/barman-pfile08-032.sas.ex.15.cnf
9b05197e3a5b12c88657408b407dfe16 app16/Balyo/barman-pfile08-032.sas.ex.7.cnf
934a00522291abe3158587d2fbef0d1b app16/Balyo/barman-pfile09-036.sas.cr.33.cnf
d9838b4199f91181c4a86e4bd6788cce app16/Balyo/barman-pfile10-037.sas.ex.7.cnf
03472092206839e9159c3ec6117c1b2f app16/Balyo/barman-pfile10-038.sas.cr.25.cnf
b2f6c04f9c950733a73cc1012cd3e65b app16/Balyo/barman-pfile10-038.sas.ex.15.cnf
d105e1fda228e436761bca3280bd944e app16/Balyo/barman-pfile10-039.sas.ex.15.cnf
77f18053958ad171ba780218e623b328 app16/Balyo/barman-pfile10-040.sas.cr.17.cnf
7a68a484db9501e311ab7b9caff32346 app16/Balyo/barman-pfile10-040.sas.cr.21.cnf
467d48c7109b523ae0ef455fe9af8476 app16/Balyo/barman-pfile10-040.sas.ex.15.cnf
e80a07f8db7b581362d572abe3937968 app16/Balyo/sokoban-p01.sas.ex.17.cnf
35a2939164a714885e619f1c1b617fcc app16/Balyo/sokoban-p04.sas.ex.13.cnf
c67862e878db16a4b4e489e5fd5488de app16/Balyo/sokoban-p09.sas.cr.25.cnf
0ea5bc05f5f3bf71786257bfe930b9d1 app16/Balyo/sokoban-p10.sas.cr.35.cnf
3df4143f993c996e495905590aae3742 app16/Balyo/sokoban-p16.sas.cr.37.cnf
c10320bf83ec9faa583689044148da81 app16/Balyo/sokoban-p16.sas.cr.39.cnf
9cee8463e1a6f350b02e5b0b32da6636 app16/Balyo/sokoban-p16.sas.ex.15.cnf
532e6e297011165c85c155da8b03cf4f app16/Balyo/sokoban-p16.sas.ex.17.cnf
cd7c9182c49ccbb8a6f8da76bc885861 app16/Balyo/sokoban-p16.sas.ex.19.cnf
d3e0da382d1e4ebbf89759fcf78e9f14 app16/Balyo/sokoban-p16.sas.ex.21.cnf
5b3fccd5cb0b5f69d4c9bbafd00131da app16/Balyo/sokoban-p16.sas.ex.23.cnf
02ea3899d657d6e6144027ac015fb032 app16/Balyo/sokoban-p17.sas.ex.11.cnf
6abbb207c8aab13e672fb926fedda297 app16/Balyo/sokoban-p18.sas.cr.29.cnf
6b5a586a0080c7325a09c2f08d735bac app16/Balyo/sokoban-p19.sas.cr.23.cnf
d2a6726d2a749fc1f6f6d1bfd2df66ab app16/Balyo/sokoban-p20.sas.cr.21.cnf
8b9e31641201f904afc2fcd6d676d8fa app16/Balyo/sokoban-p20.sas.cr.23.cnf
8bbcc58adda151c7754f593135f47f52 app16/Balyo/sokoban-p20.sas.cr.25.cnf
7f6969d169050ecd6622d3cb5b1651d5 app16/Balyo/sokoban-p20.sas.cr.27.cnf
202856b60ab61ca916174f690423f27b app16/Balyo/sokoban-p20.sas.cr.29.cnf
48946ec7431cc3343deec83b2fe8fcfc app16/Balyo/sokoban-p20.sas.cr.31.cnf
4b2b034f523dd059c3c856ff307cc433 app16/Balyo/sokoban-p20.sas.cr.33.cnf
422295d75c04755976706423d369fd91 app16/Balyo/sokoban-p20.sas.cr.35.cnf
161e1291ec525f87502ed5e54d76fc0e app16/Balyo/sokoban-p20.sas.cr.37.cnf
787eb40bdb26b702b53930adb559d860 app16/Balyo/sokoban-p20.sas.cr.39.cnf
f1f3b5d41434b5a952482efdbaa700e7 app16/Balyo/sokoban-p20.sas.ex.11.cnf
78d856fa37bec92eed08ff7e79a05b36 app16/Balyo/sokoban-p20.sas.ex.13.cnf
6153a25219126583418230241f6b9b0a app16/Balyo/sokoban-p20.sas.ex.15.cnf
7c52f8d5771b707d7c86109e5084d5a6 app16/Balyo/sokoban-p20.sas.ex.17.cnf
767fe02bad144f82cb13edce58b9fc30 app16/Balyo/sokoban-p20.sas.ex.19.cnf
dfce09af051709f8ca04e2cfc2a0fa18 app16/Balyo/sokoban-p20.sas.ex.21.cnf
3ceaf1afd0d35886edf50155fa526219 app16/Balyo/sokoban-p20.sas.ex.23.cnf
6ed645315c9ffb8177453b955fbe1737 app16/Balyo/sokoban-sequential-p145-microban-sequential.050-NOTKNOWN.cnf
f52ec4dacdcf65c3aedb61fb46ade01b app16/Balyo/sokoban-sequential-p145-microban-sequential.070-NOTKNOWN.cnf
f5f4e830d64b1a6a526a818c87ee9b84 app16/Ehlers/snw_13_8_CCSEncnopre.cnf
b0cd3ee3e84aa6826d9824d2ac1662da app16/Ehlers/snw_13_8_CCSpreOptEncpre.cnf
c6a530fc165d1a1542085cb87045373d app16/Ehlers/snw_13_8_CCSpreOptnopre.cnf
56d412caa7af19c374c2037042cfea19 app16/Ehlers/snw_13_8_CCSpreOptpre.cnf
ca9f94e734dd3da65142369ed3f35314 app16/Ehlers/snw_13_8_pre.cnf
248531c340cd106a03f66f6214e3678f app16/Ehlers/snw_13_9_CCSEncpre.cnf
1bc6aca7ce93ed3774838f5c2ece9305 app16/Ehlers/snw_13_9_CCSpre.cnf
248531c340cd106a03f66f6214e3678f app16/Ehlers/snw_13_9_Encpre.cnf
df923253ed537ae91197fc7c04979523 app16/Ehlers/snw_13_9_pre.cnf
053c221f0cadd8216afd2118ace892d8 app16/Ehlers/snw_13_9_preOptEncpre.cnf
b5fdaa859aa92bab1461c3ac364ab358 app16/Ehlers/snw_13_9_preOpt_pre.cnf
72cc26872d5eeb6fd31d2b58d041dce0 app16/Ehlers/snw_16_8_nopre.cnf
4fc5ef38d8e6f4c84a82a9e590d65174 app16/Ehlers/snw_16_8_pre.cnf
cc7fd122fc0bf8edbb70a848e6043194 app16/Ehlers/snw_16_8_preOpt_pre.cnf
2f8ed7e2fac8915c406d5b5ba770dda8 app16/Ehlers/snw_16_9_CCSpre.cnf
65ecf3cf2c6053bd78766ec482d1aea9 app16/Ehlers/snw_16_9_CCSpreOptpre.cnf
e842198bcb35b69830536dc063917e5d app16/Ehlers/snw_16_9_Encpre.cnf
0e7da5bd8ef335d0e98c8177146e51ba app16/Ehlers/snw_16_9_pre.cnf
a40ffa2e2962fa0f8c42deeebbf5b698 app16/Ehlers/snw_16_9_preOptEncpre.cnf
56d29c2041b6fd0252b6eda93d4fa732 app16/Ehlers/snw_16_9_preOpt_pre.cnf
6199284e23485aa07a21eae065b50e2c app16/Ehlers/snw_17_9_CCSpreOptEncpre.cnf
7108eccd7eeef953be10123c48c70fd0 app16/Giraldez/modgen-n200-m90860q08c40-1006.cnf
ebca13f551d9b94684e1c3a7aa4cfcb2 app16/Giraldez/modgen-n200-m90860q08c40-11953.cnf
d1786d56e95159307c155d10bc63cd78 app16/Giraldez/modgen-n200-m90860q08c40-12992.cnf
9f9f4d6a0fb3404f29a48a7686480523 app16/Giraldez/modgen-n200-m90860q08c40-13845.cnf
197a0b95b2410deb8008b830a8d261f6 app16/Giraldez/modgen-n200-m90860q08c40-1434.cnf
1a61eb664ca2540e3d287f72d098aa5b app16/Giraldez/modgen-n200-m90860q08c40-14424.cnf
69cba6a7fbf2641aeb8eff814517d46f app16/Giraldez/modgen-n200-m90860q08c40-14808.cnf
5267879ba9faf77cf81e0bedf04ed55d app16/Giraldez/modgen-n200-m90860q08c40-15163.cnf
913fdaa83aac449d51b478cc23ae7493 app16/Giraldez/modgen-n200-m90860q08c40-15606.cnf
169f3275c59c7025f87278a5f55684f2 app16/Giraldez/modgen-n200-m90860q08c40-1585.cnf
64b27d88b587222ef3b7a8547e99212c app16/Giraldez/modgen-n200-m90860q08c40-16597.cnf
abc598f7251dd4a4b08026f67bffea97 app16/Giraldez/modgen-n200-m90860q08c40-1876.cnf
477de782755ea38ca4f725097e5d6f33 app16/Giraldez/modgen-n200-m90860q08c40-18788.cnf
1616ebe870010a07ec81468a5cffe90d app16/Giraldez/modgen-n200-m90860q08c40-18972.cnf
7ce6d30557cc06ab90d2602a0316db3e app16/Giraldez/modgen-n200-m90860q08c40-19419.cnf
54e94e9fa2a946f98d43f9b1e267ef57 app16/Giraldez/modgen-n200-m90860q08c40-2087.cnf
083ce215a4b5b53a49574a988849c0d1 app16/Giraldez/modgen-n200-m90860q08c40-21438.cnf
3e713c7189d962af9b7a24c188256bd9 app16/Giraldez/modgen-n200-m90860q08c40-22556.cnf
a1632385133a3378b0da70d712474f95 app16/Giraldez/modgen-n200-m90860q08c40-25297.cnf
1b3b23594bf568440296c8a0abe8a500 app16/Giraldez/modgen-n200-m90860q08c40-28046.cnf
2c0e512504e41438a109163db4090f0f app16/Giraldez/modgen-n200-m90860q08c40-29020.cnf
5db0a10bd1d950b8936f7d5d3067fe29 app16/Giraldez/modgen-n200-m90860q08c40-3230.cnf
6c3f6d362cb8fa3ec4c32d39f9b53ccd app16/Giraldez/modgen-n200-m90860q08c40-3866.cnf
af983418a8e559925a822ca6b67bee56 app16/Giraldez/modgen-n200-m90860q08c40-4208.cnf
1ff4731b30032b59e49fb6e4c4e3399f app16/Giraldez/modgen-n200-m90860q08c40-5377.cnf
3f297dfdee3bbd49de626dd0986f87c5 app16/Giraldez/modgen-n200-m90860q08c40-6295.cnf
6bb44c7c28f7ab4ea01ecf22a7441ef8 app16/Giraldez/modgen-n200-m90860q08c40-6336.cnf
cd67f68c772686741d1e9c47afa554f0 app16/Giraldez/modgen-n200-m90860q08c40-6967.cnf
2cad3a02dba9fd477a63cba1d9352880 app16/Giraldez/modgen-n200-m90860q08c40-9056.cnf
ca4f6ba3d8f13b100b5ff8b4e813754c app16/Kojevnikov/ak016modbtsimpbisc.cnf
7dad57a37989aabc9af829e35faab998 app16/Kojevnikov/ak032diagodiagoisc.cnf
9a3aa6538a46b3e3e86381432e351863 app16/Kojevnikov/ak032modbtmodbtisc.cnf
59e7ce3aec4a8d9d18626ded0dd512c6 app16/Kojevnikov/ak032modbtsimpbisc.cnf
80690da0621035b4c0dbda5319c4c238 app16/Kojevnikov/ak064boothboothisc.cnf
ca5fe2aeddc0fc3e2e1e09887141453f app16/Kojevnikov/ak064diagodiagoisc.cnf
e8667b68a17c900389e606735643c0ad app16/Kojevnikov/ak064modasbg2asisc.cnf
ba21f0020b19aad4ff71a52434c54ddc app16/Kojevnikov/ak064modbtmodbtisc.cnf
0caa04218ce7224e17b12dbbfee67a36 app16/Kojevnikov/ak064paralbg2btaig.cnf
503c48da90124dbc7df62324936f04aa app16/Kojevnikov/ak064paralparalisc.cnf
c6c9ddb20a556d6f51c399976e1e4f4a app16/Kojevnikov/ak064simpbbg2btaig.cnf
24946ff7165c998d34c0815c2c040c8a app16/Kojevnikov/ak128astepbg2msaig.cnf
c1143754d6702e038457a39572f2c93e app16/Kojevnikov/ak128boothbg2btisc.cnf
66f3c0b0c615f495c21c98133254618c app16/Kojevnikov/ak128boothboothisc.cnf
b20e1059c9c652725c1f8265cc72cb29 app16/Kojevnikov/ak128diagobg2asaig.cnf
9073f7eb009f45fbc6216689b026e58d app16/Kojevnikov/ak128modasbg2asisc.cnf
2477d47103f75d89e5fe59fbcc123fb0 app16/Kojevnikov/ak128modbtbg2msisc.cnf
839f8c9a9240612ad39cc6cf780c7a6b app16/Kojevnikov/ak128paralbg2msisc.cnf
9ccac1ec3ab4cb60d16d695419c62661 app16/Kojevnikov/ak128paralparalisc.cnf
c24bd73a1a95db348fc76416ee2b9f2c app16/Kojevnikov/ak128simpbbg2msisc.cnf
61052ae608dc25eddccd5a28b8081615 app16/Ledoux/sncf_model_ixl_bmc_depth_07.cnf
c68b1c95cd9e0098e0be8458b45bd6bd app16/Ledoux/sncf_model_ixl_bmc_depth_08.cnf
d8bc626b774612d5734b6b33b91dd7b0 app16/Ledoux/sncf_model_ixl_bmc_depth_09.cnf
f7807c125e91bd1aa1a62ce97e15848f app16/Ledoux/sncf_model_ixl_bmc_depth_10.cnf
fb5b305359e880d99b65a77fa59b854a app16/Ledoux/sncf_model_ixl_bmc_depth_11.cnf
9c25a2eee7ba72d9b209ea6222aef03a app16/Ledoux/sncf_model_ixl_bmc_depth_12.cnf
2366673e09ea9c6b6474f6742fcaa775 app16/Ledoux/sncf_model_ixl_bmc_depth_13.cnf
d103abe4d7a8625539a2941cd1258e64 app16/Ledoux/sncf_model_ixl_bmc_depth_14.cnf
775c0670f6d580f583d109a12c9808b8 app16/Ledoux/sncf_model_ixl_bmc_depth_15.cnf
8b219645f4902d604f04100d1f84b4b9 app16/Manthey/26_stack_cas_longest_true-unreach-call.i-cbmc-u2.cnf
990c27f1eb56d2628ed1e5f17340cf75 app16/Manthey/Sz1024_34824.smt2-stp212.cnf
d0e52e14d3bb14f887ebe52aa4b9e311 app16/Manthey/Sz512_15127_1.smt2-stp212.cnf
0ce29314df6d7b33b2f6b9e7c26ea98a app16/Manthey/Sz512_15127_3.smt2-cvc4.cnf
4f67c5a848b71df0453f9029017af2bd app16/Manthey/Sz512_15127_4.smt2-cvc4.cnf
8eabb8cc646697c34e07cdf7ab48dede app16/Manthey/Sz512_15127_5.smt2-stp212.cnf
4456b7cef5640ca5642a865cfd7deed6 app16/Manthey/Sz512_15127_6.smt2-stp212.cnf
9f4149af22e6d8eb3229e443208e4a23 app16/Manthey/Sz512_15128_0.smt2-stp212.cnf
94a211c613daad2b076fad2ed77d57cb app16/Manthey/Sz512_15128_1.smt2-cvc4.cnf
aca7876832997f078e930481ec72f75b app16/Manthey/add_01_1000_4.smt2-cvc4.cnf
8cbe36f7c1c97778c7428a79bc7ed6ba app16/Manthey/div2.c.20.smt2-stp212.cnf
52e6d567b0abf3310ac06d72f2a09c8f app16/Manthey/e2_1.c.smt2-stp212.cnf
6ff43899833f7818292ad8558ea26de1 app16/Manthey/e2_2.c.smt2-cvc4.cnf
4a477295d6d2d6ecce4cee8a7f2124c9 app16/Manthey/e2a_2.c.smt2-cvc4.cnf
d70512d061ab34137a539c9cc95c7330 app16/Manthey/gaussian.c.75.smt2-cvc4.cnf
88a7f1bbd62e1a799e86152b4db3608a app16/Manthey/mix034_rmo.opt_false-unreach-call.i-cbmc-u2.cnf
30a9e118e1b7d725d0fed7f188beb4fd app16/Manthey/mul_03_3000_1.smt2-cvc4.cnf
bf5517e16d0de5387832ca9a7e70ac99 app16/Manthey/newton.2.2.i.smt2-cvc4.cnf
17895740a5afe7e5569bfc5a3a4ca775 app16/Manthey/newton.2.3.i.smt2-cvc4.cnf
646a03257a77612e5478db235f168455 app16/Manthey/newton.2.3.i.smt2-stp212.cnf
455e5968aa0df2165ff8a5ff88070246 app16/Manthey/newton.3.3.i.smt2-stp212.cnf
27b616bdffd11947338975129810a4f5 app16/Manthey/newton.4.3.i.smt2-stp212.cnf
7b264ad79f382fe9890d9b47850c5061 app16/Manthey/newton.5.1.i.smt2-cvc4.cnf
68c639fc8a53cef9748de2b96fe2bd99 app16/Manthey/podwr001_power.opt_false-unreach-call.i-cbmc-u2.cnf
29d46ec4740d20568856d28220976de0 app16/Manthey/qurt.c.20.smt2-cvc4.cnf
403140be11808597fbac4a115280e0ac app16/Manthey/safe009_pso.oepc_true-unreach-call.i-cbmc-u2.cnf
fa47600f362594d055d55f0408d1c30c app16/Manthey/safe027_pso.opt_true-unreach-call.i-cbmc-u2.cnf
1d7097619f44369757646904bcb83090 app16/Manthey/safe028_tso.oepc_true-unreach-call.i-cbmc-u2.cnf
8eac1ad69b99e7f01b4b0a939a08e0e1 app16/Manthey/safe029_power.opt_false-unreach-call.i-cbmc-u2.cnf
7f287e7020ac18b878283f320a180ca7 app16/Manthey/sin.c.75.smt2-cvc4.cnf
1e80b843892a04079bc03f5858faf028 app16/Manthey/sin2.c.2.smt2-cvc4.cnf
1d1f809207dff660f13685c8315b9bdf app16/Manthey/sin2.c.20.smt2-cvc4.cnf
b531fde3ebef4e0d0e3d2f69c951f120 app16/Manthey/square.2.0.i.smt2-cvc4.cnf
a361d84103439875224a4f8b71cbd105 app16/Manthey/test_v3_r3_vr10_c1_s24300.smt2-stp212.cnf
1bc63810a3d18c185cfe6d68cfd200ae app16/Manthey/test_v3_r8_vr5_c1_s8257.smt2-stp212.cnf
0181748465215ff6e5b361ac3779b76c app16/Manthey/test_v5_r5_vr1_c1_s15604.smt2-stp212.cnf
e4038ff5138f6919f08d1e93769acbf1 app16/Manthey/test_v7_r12_vr10_c1_s18160.smt2-cvc4.cnf
1ac4e0baec4d5b901c1fc9806b643e2d app16/Manthey/test_v7_r12_vr10_c1_s18160.smt2-stp212.cnf
965ad12c5037031e8f9e53350b3dbbc7 app16/Manthey/test_v7_r12_vr1_c1_s22787.smt2-cvc4.cnf
49a04c43377350ec549161af01e081cc app16/Manthey/test_v7_r17_vr10_c1_s3680.smt2-stp212.cnf
96b9f5c4baa56af0d629d346b7851ee6 app16/Manthey/test_v7_r17_vr1_c1_s30331.smt2-stp212.cnf
7d975872498fc9b1cf59cf4b8480329d app16/Manthey/test_v7_r17_vr5_c1_s25451.smt2-cvc4.cnf
3a3e50d8c3b319ec1f75a97f6f1ff235 app16/Manthey/test_v7_r17_vr5_c1_s2807.smt2-stp212.cnf
8c17ac1c6318401307320cce12b0202a app16/Manthey/test_v7_r7_vr10_c1_s32506.smt2-cvc4.cnf
88feb65ef7955df4e7892c32452402ac app16/Manthey/uum16.smt2-cvc4.cnf
8369d68bfeb7113e146f109f574fcc9b app16/Manthey/uum8.smt2-stp212.cnf
472f0bf494ff6f4ada071ae53908bded app16/SC-past/10pipe_k.cnf
799b67d2636cd5bd8b849550231d0272 app16/SC-past/14pipe_q0_k.cnf
f64b05708d0fcc453eff5f15646feb0c app16/SC-past/16pipe_16_ooo.cnf
953b9cb99bfd26cff0e1ac65be1241f6 app16/SC-past/1dlx_c_iq57_a.cnf
f56ced2fb739422a3f1073cb2c065105 app16/SC-past/9dlx_vliw_at_b_iq4.used-as.sat04-345.cnf
68b37d84dbab0ed167eaa51f96293f3d app16/SC-past/9dlx_vliw_at_b_iq8.used-as.sat04-718.cnf
cd13d65b7b0fdb9725973cfac75f99a0 app16/SC-past/9dlx_vliw_at_b_iq9.used-as.sat04-719.cnf
28e85fc2a4586943a0ffdffa15206b58 app16/SC-past/ACG-20-10p0.cnf
8eb175d312e8be3bb4695a79b8f45bdc app16/SC-past/ACG-20-5p1.cnf
0acd143a4e60b38309663b5993b5ded9 app16/SC-past/AProVE07-25.cnf
6fd7d026c372988cefc364000243d13f app16/SC-past/AProVE11-06.cnf
7389a5bb2bc461eb778e53b7d7c2ef22 app16/SC-past/C168_FW_UT_518.cnf
1a1f0dddf727883e0973677dd00e9269 app16/SC-past/E00N23.cnf
0b29cb9f2e17f3e05b66912497d8cb84 app16/SC-past/E02F22.cnf
93858500e23e9a4bf0619d7bf7dc00f3 app16/SC-past/UCG-20-5p1.cnf
a860cf613d4e0cb34c00f8b79611121d app16/SC-past/UR-15-10p0.cnf
9573f6b4001373bab93d1a02f96820d1 app16/SC-past/UTI-20-10p1.cnf
10eca282b9263f77903cd90a479b46ee app16/SC-past/UTI-20-5p1.cnf
877b5ba5770bd3f052c9361cd7019e21 app16/SC-past/abb313GPIA-9-c.used-as.sat04-317.cnf
3fa9101d04cd46f278ef4d2bd1e75643 app16/SC-past/aes_32_3_keyfind_2.cnf
3f4ea4cf17e734bbe947db7c1dc9fde7 app16/SC-past/aes_32_5_keyfind_1.cnf
1024a3346322fdba0a20b51f99eae4c0 app16/SC-past/aes_64_2_keyfind_1.cnf
4738c3d0ccd52030cff8addcec6bcde9 app16/SC-past/aes_64_3_keyfind_1.cnf
c7f51e1ee7556440ab29e1c4bfe29538 app16/SC-past/am_7_7.shuffled-as.sat03-363.cnf
4196a55509ff0c8673f6c73d6c21df3b app16/SC-past/am_9_9.cnf
1d1f96fc6fc32d1d0b2f857c1940751b app16/SC-past/arcfour_initialPermutation_5_32.cnf
4ee0eadfdf7df4b199b4080bd84f9235 app16/SC-past/arcfour_initialPermutation_6_14.cnf
2fe3650d4a602f63086e937176360ebb app16/SC-past/countbitsarray04_32.cnf
d464f22dd212ad9afa317dae82dd7350 app16/SC-past/countbitssrl128.cnf
b07ffb3e91c0ceac55a5845e73cb7377 app16/SC-past/ctl_3791_556_unsat.cnf
9e9509e53f24c36ad7cf4d2124b3c979 app16/SC-past/ctl_4291_567_8_unsat.cnf
3a68d904935650d9da7e64e1ee7bae82 app16/SC-past/cube-11-h13-unsat.cnf
1f049803198bb32ab05476465773cc39 app16/SC-past/dated-10-19-u.cnf
90581094793af5fc10d4e4b9a10259ac app16/SC-past/eq.atree.braun.11.unsat.cnf
8d6acb9f6b752ad76c024133f5175c69 app16/SC-past/eq.atree.braun.12.unsat.cnf
8ca1246723b65c8e0ae1eddb535ce13f app16/SC-past/eq.atree.braun.13.unsat.cnf
4e7daa3d49a343320151ab63a92adc02 app16/SC-past/esawn_uw3.debugged.cnf
64dbff9d4cd335d3bb1c1da493205569 app16/SC-past/f1000.cnf
472fdc6f35344e53700f582b7f130f59 app16/SC-past/f600.cnf
e931efb7c68c01e6983ba8c143e7c6c3 app16/SC-past/g250.29.cnf
f484a6e7076013dbd5acce1004ff5de7 app16/SC-past/gripper14u.cnf
5d7745a7593199a47cd1accba5810ed0 app16/SC-past/gss-20-s100.cnf
107f2922072d64498e09af3270c7b9c3 app16/SC-past/gss-24-s100.cnf
a2be03cdc152990d030fb3c2aea1f730 app16/SC-past/gss-26-s100.cnf
f47c33d2a9a327da4633207adfef7b77 app16/SC-past/gss-27-s100.cnf
06e51f5d7b210924fc518c0569affee4 app16/SC-past/gss-28-s100.cnf
f6240de02056c2b504245a595f8fae89 app16/SC-past/gss-29-s100.cnf
0260f441a1d07270edb6a85b2fc90d1d app16/SC-past/gus-md5-10.cnf
0621e557bffdc18ca509447665adecda app16/SC-past/gus-md5-12.cnf
1b81e621ed8f53344c5cf5bcf85cb4de app16/SC-past/hitag2-8-60-0-0xb2021557d918860-94.cnf
83bf07ba863b9f3805c1ae0e389a4729 app16/SC-past/homer17.cnf
704e7be3b503ef7e41f5b568f5901001 app16/SC-past/ibm-2002-23r-k90.cnf
87edde2efeb4a3550e6337640c26115d app16/SC-past/k2mul.miter.cnf
173e4ee64c1de40066386509dff5d0f1 app16/SC-past/k_unsat.cnf
47bea79e2bf12e18e409c2c4bd6fac03 app16/SC-past/korf-18.cnf
eb13cc20d1f527852dfd9763b4c3d0ef app16/SC-past/li-exam-61.cnf
3be662940f394fa876137a905247d755 app16/SC-past/li-exam-61.shuffled-as.sat03-366.cnf
d2b92a2a2ac00ffa664e5b40edc9c731 app16/SC-past/li-exam-62.cnf
0031dabb58348c1808d665d68bababfe app16/SC-past/li-exam-63.cnf
e7b11de1f334040422ec3d9788cc5625 app16/SC-past/li-test4-100.cnf
f8d57232f7861681ab60f3a9243b74bd app16/SC-past/li-test4-95.cnf
972fe50298cac28248981bddb0c07e01 app16/SC-past/li-test4-96.cnf
ef5c37e327dbcc470e12a40d7ee6bbac app16/SC-past/li-test4-98.cnf
96415b5c8742912cfcfd392c8f1ff378 app16/SC-past/li-test4-99.cnf
e050fe11c7c50ba82ac7126f49db3c10 app16/SC-past/maxor128.cnf
fc00df719c8630009723cd295f7c0c3b app16/SC-past/maxxororand032.cnf
a551844fb6a7f35cf6025d0a525ca14e app16/SC-past/minxorminand128.cnf
21923a69386e0f7043d9b5a4a577566f app16/SC-past/miza-sr06-md5-48-01.cnf
3bb585fcdaeb772457dbcffd3371aab9 app16/SC-past/mizh-md5-47-3.cnf
e4ef55733955e0a45519e9f7dec923e5 app16/SC-past/mulhs016.cnf
431823fbe355abc605baf058be5925a0 app16/SC-past/mulhs032.cnf
824eb6d18896d58760ba5eec9fca54ae app16/SC-past/mulhs064.cnf
3cd74d1813a4408b4123afc23df07d7d app16/SC-past/ndhf_xits_09_UNSAT.cnf
d554330e1400d4f25a793413df9abc4e app16/SC-past/ndhf_xits_17_UNKNOWN.cnf
28233bedeee44da6e79e63b9febc4d1e app16/SC-past/openstacks-sequencedstrips-nonadl-nonnegated-os-sequencedstrips-p30_1.035-NOTKNOWN.cnf
4ab53801f3b1a3f7169c9fb38cba4184 app16/SC-past/openstacks-sequencedstrips-nonadl-nonnegated-os-sequencedstrips-p30_3.045-NOTKNOWN.cnf
a8a1bbdd3b06fbe1d5d15b533c46926a app16/SC-past/par32-1-c.cnf
3b051df3ac19da168c6d697e3523010b app16/SC-past/par32-3-c.cnf
ec1a03bc95c5b06907199f7ae65ad092 app16/SC-past/partial-10-13-u.cnf
a6b04ec2cace5c4e6bef212c7f2df796 app16/SC-past/partial-10-15-s.cnf
d1c031feea2b01bb6670a4d0116bbd23 app16/SC-past/partial-10-19-s.cnf
ec6ae8f44e827ed5bcc8aed459990775 app16/SC-past/partial-10-19-u.cnf
8e22d84b1ae625d44fbf300a32374a2d app16/SC-past/partial-5-11-u.cnf
c2f768afbb9db3d5f5133c3f48734894 app16/SC-past/partial-5-15-u.cnf
b9de1594525a25a6c43932e2e172e913 app16/SC-past/partial-5-17-u.cnf
b49e933dbc6614751d64dbdefaefe2e8 app16/SC-past/partial-5-19-u.cnf
16e4f7136121630fb776cbad00a74e51 app16/SC-past/pb_400_02_lb_15.cnf
853982f8646333d217e35d938b7eb00b app16/SC-past/q_query_3_L200_coli.sat.cnf
18ad1dee1e9d863458e75a20545ae68a app16/SC-past/rbcl_xits_09_UNKNOWN.cnf
b02fa517730e45c506203f9bd7ebb62c app16/SC-past/rbcl_xits_11_UNKNOWN.cnf
604e1311b2fcb3c933399ca7195c63f1 app16/SC-past/rbcl_xits_13_UNKNOWN.cnf
0b7170d33b896e8b879b19b65ac5c517 app16/SC-past/rpoc_xits_08_UNSAT.cnf
feb620c17f2a4d7899a2e7883baa7391 app16/SC-past/rpoc_xits_09_UNSAT.cnf
8ece32bbd9e6c3f5c8cdf0e94e0569cd app16/SC-past/rpoc_xits_10_UNKNOWN.cnf
e0639bbed56c8b8c34616f8cb99c381c app16/SC-past/rpoc_xits_11_UNKNOWN.cnf
74b3bf25aa16f613ee15d6b4b9bc9486 app16/SC-past/rpoc_xits_14_UNKNOWN.cnf
7cb48ce6f0320bc88623afd3c5af4aae app16/SC-past/safe-30-h29-unsat.cnf
1f1dd0782ec95ee5e6d7a06f92fc0f12 app16/SC-past/schup-l2s-bc56s-1-k391.cnf
a3e60bf32959d7d3bee9a819f72be97f app16/SC-past/servers_slapd_a_vc149923.cnf
9fab5edd49fb904ff76ff7abf98e0d14 app16/SC-past/slp-synthesis-aes-top21.cnf
6ee28191d649bfeef8c7d8c569a3cd59 app16/SC-past/slp-synthesis-aes-top23.cnf
7ecd2f8efd83504268f0a96fa44f6fe7 app16/SC-past/slp-synthesis-aes-top26.cnf
b967fca11e85ef5b614d3452b1c4b2ad app16/SC-past/smtlib-qfbv-aigs-VS3-benchmark-S2-tseitin.cnf
c5685247c8f21e8da88f42049fffdb13 app16/SC-past/smulo128.cnf
0683489092a5eb0c881dd17c2c45d08e app16/SC-past/sortnet-7-ipc5-h15-unsat.cnf
b3381a58cbbd64d5d90a3b4fcd44bf6d app16/SC-past/sortnet-8-ipc5-h18-unsat.cnf
a443b9e3a7093c1d9a47b42016a65c52 app16/SC-past/total-10-13-u.cnf
a2687a8a1b0deeabfd7eddcfa56549a2 app16/SC-past/total-10-19-u.cnf
9f79c3f75a90db314ed315006ba97d6f app16/SC-past/total-5-17-u.cnf
743d2964f7d4d5b7d730bf71063f2e7c app16/SC-past/traffic_3_uc_sat.cnf
42f3503956f4db7099ca37aa90921a11 app16/SC-past/transport-transport-city-sequential-35nodes-1000size-4degree-100mindistance-4trucks-14packages-2008seed.020-NOTKNOWN.cnf
48f03e5fbe31fc85b9a464480fc8aa5a app16/SC-past/transport-transport-city-sequential-35nodes-1000size-4degree-100mindistance-4trucks-14packages-2008seed.050-SAT.cnf
6c2d25eda70423643946d76935ceb950 app16/SC-past/transport-transport-three-cities-sequential-14nodes-1000size-4degree-100mindistance-4trucks-14packages-2008seed.040-NOTKNOWN.cnf
2f7cce17acd4cbdaaa486324e4447fe4 app16/SC-past/transport-transport-two-cities-sequential-15nodes-1000size-3degree-100mindistance-3trucks-10packages-2008seed.020-NOTKNOWN.cnf
74e0fa52e4789615985c73d0a8b105b4 app16/SC-past/transport-transport-two-cities-sequential-15nodes-1000size-3degree-100mindistance-3trucks-10packages-2008seed.040-SAT.cnf
bb9c892177921190aaa9b057f4555731 app16/SC-past/valves-gates-1-k617-unsat.cnf
201f995f0a64fd3f1c4a75b9969bbfb9 app16/SC-past/velev-pipe-oun-1.1-05.cnf
f00d63a11b60c03c23c318642f251c4f app16/SC-past/velev-vliw-uns-2.0-uq5.cnf
1895035f27e5c68fc4ec9046afaddf15 app16/Wedler/ablmulub16x4o.cnf
0df6d0b859ffcf0de41aef730f836fca app16/Wedler/ablmulub2x32o.cnf
6791ac7e3b895c7669cf95316d99f598 app16/Wedler/ablmulub8x16o.cnf
70c9958378d4ea81d589f8e1147a75bc app16/Wedler/custmulsb2x32o.cnf
544c1418c32952d6cdef5c01df15d1a5 app16/Wedler/custmulun16x16o.cnf
