7c7d5df6efe6814524d7083fcbb5ae79 RandomSat/fla-350-0.cnf
d7eebbbb356927be7abad10f57a77d1a RandomSat/fla-350-1.cnf
e4673809bd4b654773d50812c5e617bb RandomSat/fla-350-2.cnf
7850c3b6af756f1d0179acf8375816e1 RandomSat/fla-350-3.cnf
4621a58dff11b3e321a7eb95b5cf7de8 RandomSat/fla-350-4.cnf
ea262bb27d4563daa053bba5572df0ca RandomSat/fla-350-5.cnf
f339afea85d98970c36d4c12981e02f3 RandomSat/fla-350-6.cnf
0063fc896875c9c7c22899ec65f2a830 RandomSat/fla-350-7.cnf
3655ee782ab199ee44bb385547a916b3 RandomSat/fla-350-8.cnf
68296f0dea1d3e99a3e46e35034eabc8 RandomSat/fla-350-9.cnf
94b12098a0ded1f1be8945d69451fec3 RandomSat/fla-400-0.cnf
878b620b1f3f160e9bd2d10fd15dbb98 RandomSat/fla-400-1.cnf
abc4b0a1afdba749c9a664be63ce5adc RandomSat/fla-400-2.cnf
c2c69d2e3d037fdb4e86a8caa41c4357 RandomSat/fla-400-3.cnf
49803afe1a7b9fcb0c264817771501fb RandomSat/fla-400-4.cnf
47a4effb6002addb4227a1d9e4f1f661 RandomSat/fla-400-5.cnf
0f5be88418538edb261c31c07394016e RandomSat/fla-400-6.cnf
0b6b63453bcf736864c6da23af7c6579 RandomSat/fla-400-7.cnf
888f9d08c6552c02e27266f95091e94a RandomSat/fla-400-8.cnf
7ae1abbbc693813ffa3943ac3472acd3 RandomSat/fla-400-9.cnf
01f60b9dc03fe56b637be29997d0f907 RandomSat/fla-450-0.cnf
43353f140a96f1c23eaf9345b72ea5a4 RandomSat/fla-450-1.cnf
eb4fbfb2b8de84e4d7ea390b727a005d RandomSat/fla-450-2.cnf
75f902720fc5ea8cb9ad4295cfea511b RandomSat/fla-450-3.cnf
f105862fa02abc462dd6568ef79ea777 RandomSat/fla-450-4.cnf
48630d236b8e4ffc710ec18c546f79e2 RandomSat/fla-450-5.cnf
50af47ae47d5206db7e927b3eb09b564 RandomSat/fla-450-6.cnf
0db0728df9246f4b639125b996de34b6 RandomSat/fla-450-7.cnf
51de1751e8ae89df7833876f899f9d38 RandomSat/fla-450-8.cnf
58aa6c4a34c35efaa41897c531f7c554 RandomSat/fla-450-9.cnf
092b2ac21ce0b60fc335a087cec56b5f RandomSat/fla-500-0.cnf
90b484482b81a2bac654e8500d361639 RandomSat/fla-500-1.cnf
b8cf42bb8aaa68ac0bd18cbae68c71bb RandomSat/fla-500-2.cnf
db4d6f23fa0c6198de177e046ca3d108 RandomSat/fla-500-3.cnf
2983cce1a5ca42601268c70bdbd9a0f9 RandomSat/fla-500-4.cnf
457bdd1fb2cca86176c7e382479e91a6 RandomSat/fla-500-5.cnf
aadfad74010cdd09f5446a1f30d481cd RandomSat/fla-500-6.cnf
31075b6a7ec624418e81f5ab47b173a0 RandomSat/fla-500-7.cnf
5813af2db6267c1b762c10c7f628087c RandomSat/fla-500-8.cnf
f7956e96a28b44a61832d31d744691af RandomSat/fla-500-9.cnf
90d659a5662f44eb2e907964ac094c1a RandomSat/fla-550-0.cnf
7af7b5f700d398a44a931e1bf1dbf38c RandomSat/fla-550-1.cnf
b249c94fb685f643a4b9119bb51a870b RandomSat/fla-550-2.cnf
03927f179a771e21febcf8ad03b337c8 RandomSat/fla-550-3.cnf
b1ead23d91d31079fda8db95b2ed3f59 RandomSat/fla-550-4.cnf
6dc16ec913a161a33e1bcb85a37d2f3e RandomSat/fla-550-5.cnf
72ea7c14e8994f18161cd2ab9a9b489d RandomSat/fla-550-6.cnf
559b44cf21dfc58dc1446de6e9fc5ad0 RandomSat/fla-550-7.cnf
217b5e82227bf25408bcc6010f36492e RandomSat/fla-550-8.cnf
fee16964a959d374b44f51ccef711a55 RandomSat/fla-550-9.cnf
b0b543ef55325404a2762923483256a3 RandomSat/fla-600-0.cnf
3c538d6048e4cdac8eff6216d8309a23 RandomSat/fla-600-1.cnf
7ce0049719140b9d16758e8a24d148ad RandomSat/fla-600-2.cnf
b162331d548f28e4cadf058fb2b4e53e RandomSat/fla-600-3.cnf
06820b64626a76df8900864ed2c8c5f9 RandomSat/fla-600-4.cnf
f40adefe798b0b3b48d1eecefcf7f204 RandomSat/fla-600-5.cnf
e3b10c92dbee136356c60c000d6325c4 RandomSat/fla-600-6.cnf
7edf8db562f3963842e1aae116bc09bf RandomSat/fla-600-7.cnf
4d6c64f50724eb5fe0b4070e152b5beb RandomSat/fla-600-8.cnf
43562ef71396e87ffe867ca763e0eda2 RandomSat/fla-600-9.cnf
7efb749bdf7b1e326e5e0eef3ebbbd55 RandomSat/unif-k3-r3.86-v1000000-c3860000-S337740321046355727.cnf
314501e5ddf3fb3669b5a0a7753f9d9d RandomSat/unif-k3-r3.88-v1000000-c3880000-S4878206987428714675.cnf
579e2464cc571fea60253b2d359d0dce RandomSat/unif-k3-r3.9-v1000000-c3900000-S8749300446596461392.cnf
8425beadead05d39ce307daf8d43910e RandomSat/unif-k3-r3.92-v1000000-c3920000-S8206591518015476649.cnf
e71be30a37393235223d17c8f862cf12 RandomSat/unif-k3-r3.94-v1000000-c3940000-S7324174584112857140.cnf
8d5e9b1ae59337d93a911d322bee64ef RandomSat/unif-k3-r3.96-v1000000-c3960000-S6642130359873877999.cnf
175571d539dc7b740829e2a8b6ad1648 RandomSat/unif-k3-r3.98-v1000000-c3980000-S4483455880868323253.cnf
9e2bbb4fb6f35d28df9be5ab58368067 RandomSat/unif-k3-r4.0-v1000000-c4000000-S421241507505890786.cnf
6447cb2aae980d24e370cda680aff221 RandomSat/unif-k3-r4.02-v1000000-c4020000-S5204508867733191120.cnf
4909a243f4444cab5fdb6b6c5a7336e0 RandomSat/unif-k3-r4.04-v1000000-c4040000-S7189437703571674553.cnf
f214557a20cb3cc4f043fa95c14a902c RandomSat/unif-k3-r4.06-v1000000-c4060000-S3278134390436451777.cnf
1d8f7a0a0d20f37fcd67779378dc0bed RandomSat/unif-k3-r4.08-v1000000-c4080000-S96148875844944731.cnf
fd07021e3df8dbb483ab70813228850f RandomSat/unif-k3-r4.1-v1000000-c4100000-S5634529820531276928.cnf
f15077f3dc5cbb591220b999548ff33e RandomSat/unif-k3-r4.12-v1000000-c4120000-S4897359626537563815.cnf
5c804879b86fa7b60314203ccfb71046 RandomSat/unif-k3-r4.14-v1000000-c4140000-S8555830465427351988.cnf
60bb50bba03403985490d565d5db98cf RandomSat/unif-k3-r4.16-v1000000-c4160000-S7482062526856367510.cnf
84f5a5741780a0b1c33458ae2e437be4 RandomSat/unif-k3-r4.18-v1000000-c4180000-S3862987954420144508.cnf
e3d83f4ae6f346111abcfabbfb3566e7 RandomSat/unif-k3-r4.2-v1000000-c4200000-S7900610766236505454.cnf
cb46dd764e10a20095dae634115b41af RandomSat/unif-k3-r4.22-v1000000-c4220000-S333337924426921469.cnf
c9af2078d5f4893e8062291921213d84 RandomSat/unif-k3-r4.24-v1000000-c4240000-S2844525728137063007.cnf
f29dd96a5088771e0077eb0307755cfe RandomSat/unif-k3-r4.267-v10000-c42670-S6837533202163093084.cnf
dec26fd5a4f3abdd27466bc8c6c0d138 RandomSat/unif-k3-r4.267-v10200-c43523-S2717429653000155458.cnf
9a05000deeda61532619cc579c9d9489 RandomSat/unif-k3-r4.267-v10400-c44377-S7516809900444187187.cnf
bed0f74ef209abad5bf59b33a7a48d65 RandomSat/unif-k3-r4.267-v10600-c45230-S2651906402873873725.cnf
1172e3a2362ce827b9fb63331b2d034b RandomSat/unif-k3-r4.267-v10800-c46084-S5991045543334750852.cnf
29bafb7351177153ca0f62aaacd40d5b RandomSat/unif-k3-r4.267-v11000-c46937-S1461450560285124331.cnf
e4b31fbd3a9e314d229d79546c17b2f7 RandomSat/unif-k3-r4.267-v11200-c47790-S8305288709296839458.cnf
00a0bbf15fe03b05602fafed822ffda5 RandomSat/unif-k3-r4.267-v11400-c48644-S2675820989918699954.cnf
283a31a92ad474592c8e3648c385aad4 RandomSat/unif-k3-r4.267-v11600-c49497-S369478984820784143.cnf
467c83d601975186b1b9ba301e11cf2a RandomSat/unif-k3-r4.267-v11800-c50351-S8424498052555735402.cnf
8980f371713629da536153c6adb267b0 RandomSat/unif-k3-r4.267-v12000-c51204-S6797625247295166073.cnf
2283934643ab35faa437497693e79ec1 RandomSat/unif-k3-r4.267-v12200-c52057-S2849878546664736461.cnf
c2c5346453344f41a05dc77bd074589f RandomSat/unif-k3-r4.267-v12400-c52911-S5088269682410843460.cnf
76f004124740a66457679205dd7cf138 RandomSat/unif-k3-r4.267-v12600-c53764-S4788726843582464434.cnf
5891d37ea060a8d6e44591fea4bf5b7b RandomSat/unif-k3-r4.267-v12800-c54618-S6236879879985531993.cnf
7219359d42bd0d32c9fcdc785dff98c0 RandomSat/unif-k3-r4.267-v5000-c21335-S1136363800535042192.cnf
e57c8d8e7b6b5bec08e8a329720e51aa RandomSat/unif-k3-r4.267-v5200-c22188-S8678759431095479164.cnf
54ef361ba61a896d42a985d2f3f8cec1 RandomSat/unif-k3-r4.267-v5400-c23042-S1926298003458181627.cnf
9c9dc28ca91b45fc111f53a5dd8d402d RandomSat/unif-k3-r4.267-v5600-c23895-S5777593333570580817.cnf
838d19ec27c42f9973090f82c2966fc8 RandomSat/unif-k3-r4.267-v5800-c24749-S3629382071718922911.cnf
9010f9a8a62bd5ffe74770c84656a107 RandomSat/unif-k3-r4.267-v6000-c25602-S2381859447553883445.cnf
361722d841ad947e4ca591b840a12e4b RandomSat/unif-k3-r4.267-v6200-c26455-S1143036732202339163.cnf
8dbde2c4826c7117cbc9e60d4a9d26d0 RandomSat/unif-k3-r4.267-v6400-c27309-S505065418324942317.cnf
0f042b1642cd7ecea97d8e66231e4f01 RandomSat/unif-k3-r4.267-v6600-c28162-S5315083792782045010.cnf
876e44cba7c5c988869fedde496c8b3a RandomSat/unif-k3-r4.267-v6800-c29016-S7603875085197305915.cnf
5c0faeb53da4a4321bcf2d8e81ea2146 RandomSat/unif-k3-r4.267-v7000-c29869-S552895528446765880.cnf
a74d3b8cf51b56813e4ac0ae937a7b31 RandomSat/unif-k3-r4.267-v7200-c30722-S6702139083167994208.cnf
a3c320efd8d92b513fcf6669504e4956 RandomSat/unif-k3-r4.267-v7400-c31576-S7920011985124030196.cnf
1c9f37e1808cf82079acdb97ba26bb3a RandomSat/unif-k3-r4.267-v7600-c32429-S8972729710617143788.cnf
35434ceb34a3c7dd5e22f5a924eb9134 RandomSat/unif-k3-r4.267-v7800-c33283-S8340257485534825025.cnf
44886795baf5135d77919e3029629c99 RandomSat/unif-k3-r4.267-v8000-c34136-S4121784260991402777.cnf
65d466ea9fa96b70e2a95c058b9143bd RandomSat/unif-k3-r4.267-v8200-c34989-S1042753361924357193.cnf
315b34f88bd8e9f9ec5204e9bddb3533 RandomSat/unif-k3-r4.267-v8400-c35843-S8974211934440290494.cnf
a24d410db0365f9357c8f40edf69cb87 RandomSat/unif-k3-r4.267-v8600-c36696-S2009949691606143502.cnf
9a2387e2badae09a67037508eea8c3d3 RandomSat/unif-k3-r4.267-v8800-c37550-S4262206290997711842.cnf
31a5e038432070c3aa29bb7c61c299a5 RandomSat/unif-k3-r4.267-v9000-c38403-S5434002233926259415.cnf
1981a456b09b3476e6a6336cf992099a RandomSat/unif-k3-r4.267-v9200-c39256-S8237758639437469643.cnf
690d97101ab0a498c898f7fba241ef99 RandomSat/unif-k3-r4.267-v9400-c40110-S3542306564360651541.cnf
c5682440f011e51d6ba2015127001fb7 RandomSat/unif-k3-r4.267-v9600-c40963-S8991970385594957097.cnf
3a0713752d6c8fe46a770bf3cc4334c9 RandomSat/unif-k3-r4.267-v9800-c41817-S1564541069333437948.cnf
8e1f029b82870bf6a1c1990423952304 RandomSat/unif-k5-r16.0-v250000-c4000000-S6297951525283901270.cnf
dbc66c550866ad210fbe1e9c2dcce70f RandomSat/unif-k5-r16.2-v250000-c4050000-S718372190843876442.cnf
74fe417d66b5c943df35046edc4e0561 RandomSat/unif-k5-r16.4-v250000-c4100000-S8549485130106137245.cnf
3a2cc863b60c251c7719f9e8b3170b4f RandomSat/unif-k5-r16.6-v250000-c4150000-S4004367052402274951.cnf
1904e7aaea62f802dd9f1888b1cb076f RandomSat/unif-k5-r16.8-v250000-c4200000-S4130076641018610865.cnf
02c377309c3b819079c36a4974094c81 RandomSat/unif-k5-r17.0-v250000-c4250000-S2922280673643808998.cnf
6e7012dcfd0d14f4346a89ac22d04661 RandomSat/unif-k5-r17.2-v250000-c4300000-S3978795139186671666.cnf
5dead1cc449531e4b6774cca14a9d5ca RandomSat/unif-k5-r17.4-v250000-c4350000-S5585160751687670746.cnf
69a33394223345385d28c79f1c81c002 RandomSat/unif-k5-r17.6-v250000-c4400000-S6187989636849774117.cnf
cc93703f15d73106141f127a27c2422d RandomSat/unif-k5-r17.8-v250000-c4450000-S1001455533414572164.cnf
f19dcd6353a11f64c8f0ab656fc9d852 RandomSat/unif-k5-r18.0-v250000-c4500000-S2134106477724874991.cnf
0a58944635cb5f295cd5246ee340d509 RandomSat/unif-k5-r18.2-v250000-c4550000-S3421533231314978951.cnf
18db21b331e9d84baf310370b707620c RandomSat/unif-k5-r18.4-v250000-c4600000-S5794866160901882896.cnf
092a4be1d623718b5293c77618368383 RandomSat/unif-k5-r18.6-v250000-c4650000-S7370842117265080335.cnf
fedb1890118ac54e89a09b62060be8d5 RandomSat/unif-k5-r18.8-v250000-c4700000-S2449314666127465131.cnf
7b9afaeb8556cc3a6c56be24f441dd92 RandomSat/unif-k5-r19.0-v250000-c4750000-S8409849812357872506.cnf
52403cc069b31e0867ed42fba9352740 RandomSat/unif-k5-r19.2-v250000-c4800000-S6335138427664687389.cnf
3237e7ccce81f1381732b44da26501d0 RandomSat/unif-k5-r19.4-v250000-c4850000-S7533133714789641469.cnf
0063010094a857185c888658bbfc1b8d RandomSat/unif-k5-r19.6-v250000-c4900000-S7380743748186036839.cnf
25daf0ac9731908176ed2c4ad042b829 RandomSat/unif-k5-r19.8-v250000-c4950000-S1939181244024256976.cnf
36e26bb5ff81d4fe89380197cd01109c RandomSat/unif-k5-r21.117-v200-c4223-S4002140054644802477.cnf
f8cd109421c468da4f4d851a9c6ba1f3 RandomSat/unif-k5-r21.117-v210-c4435-S4127276652013243201.cnf
19af29e3bdde6f5d19f7ca5a9d141372 RandomSat/unif-k5-r21.117-v220-c4646-S8880173106084916574.cnf
9822d49e866549fda520cada9869e6c1 RandomSat/unif-k5-r21.117-v230-c4857-S5466032506449778945.cnf
7c691ed620595f09364af43795355a0b RandomSat/unif-k5-r21.117-v240-c5068-S2186511053839131430.cnf
5dbaab63da3909ac7c26ee347297b811 RandomSat/unif-k5-r21.117-v250-c5279-S6329896642998422222.cnf
75aec8c40740b67b19e914183f1995d7 RandomSat/unif-k5-r21.117-v260-c5490-S861034176720083785.cnf
de076d1caf6ab5b658d00ce8bfec4e18 RandomSat/unif-k5-r21.117-v270-c5702-S8450464119166526914.cnf
7866abddbd179e123959c6761a4537bb RandomSat/unif-k5-r21.117-v280-c5913-S221778839601556991.cnf
15c6e2113315b670cf192c4e7e0da5ae RandomSat/unif-k5-r21.117-v290-c6124-S9098100223662516520.cnf
40d9d05084597d5d90537de84df2d60c RandomSat/unif-k5-r21.117-v300-c6335-S6322267711209357142.cnf
9ef4127bb34009d933d95c2863969efa RandomSat/unif-k5-r21.117-v310-c6546-S8728658876828088784.cnf
c6ead83889b6e0ac6943c14b739b908f RandomSat/unif-k5-r21.117-v320-c6757-S4805931756360052694.cnf
3d91a0d22f0fe2dfd6cf9ca417c427ed RandomSat/unif-k5-r21.117-v330-c6969-S3074979623574688961.cnf
45b4e44c03392ef8ad6af6f738cf56bb RandomSat/unif-k5-r21.117-v340-c7180-S5246810046375068902.cnf
264d5694fe2c2c070d104eafc8293bb1 RandomSat/unif-k5-r21.117-v350-c7391-S5200354631670098160.cnf
1214520323531c20025e7886b1a1992c RandomSat/unif-k5-r21.117-v360-c7602-S6289893278866091723.cnf
c43a7347e747e63f830a213a89b3b26e RandomSat/unif-k5-r21.117-v370-c7813-S7746425362655160776.cnf
ca0ae2dff551e86fd5dce725ae1d4810 RandomSat/unif-k5-r21.117-v380-c8024-S1091401852812731219.cnf
7bd93c873fc842b8715ebff9aa3009c1 RandomSat/unif-k5-r21.117-v390-c8236-S7412914535193118493.cnf
0364b9c1ef8812e806bb94ca01d6d316 RandomSat/unif-k5-r21.117-v400-c8447-S846004181796583408.cnf
0205a5fe6095f642afb96222d604b2ab RandomSat/unif-k5-r21.117-v410-c8658-S4543518419162839699.cnf
36e156d04d4fc80ca721ddaea7a729d3 RandomSat/unif-k5-r21.117-v420-c8869-S6479355960018190655.cnf
4afb947249df4ffb70e27e4b05722716 RandomSat/unif-k5-r21.117-v430-c9080-S4133129199373109500.cnf
c3fca3519ca6d6672dd8b1de6d6c25e8 RandomSat/unif-k5-r21.117-v440-c9291-S1515391030048712715.cnf
75e4a41c69f7628feefd492ae8c8c858 RandomSat/unif-k5-r21.117-v450-c9503-S7498931559283009788.cnf
04ca9a4d2e4be37abd8411955d76684a RandomSat/unif-k5-r21.117-v460-c9714-S6099011012906814572.cnf
53b31a9c9a6ac1453f3b3ba888126e18 RandomSat/unif-k5-r21.117-v470-c9925-S5304875482014351423.cnf
68dc90a8e4c2b1fa3bf32cead654e8ee RandomSat/unif-k5-r21.117-v480-c10136-S8585527691289764526.cnf
13e3f88c2250634dbae8ca978b6cb326 RandomSat/unif-k5-r21.117-v490-c10347-S1498155100194717782.cnf
e8566d7fbb722e008285b260ba7f26f1 RandomSat/unif-k5-r21.117-v500-c10559-S2399728173769616876.cnf
0e4820d20c644c4e121b6cc2b7785c37 RandomSat/unif-k5-r21.117-v510-c10770-S1719464138674257986.cnf
b208f974a54fa7e1b793451adacdc3ce RandomSat/unif-k5-r21.117-v520-c10981-S3312226180029830295.cnf
8e37e01210b65117ccc1974c88c4962b RandomSat/unif-k5-r21.117-v530-c11192-S8937822630413802778.cnf
dbeb3e9b3612e036557220bc001b8365 RandomSat/unif-k5-r21.117-v540-c11403-S712247621474133038.cnf
338cb99453cadd16655b8b34e630443b RandomSat/unif-k5-r21.117-v550-c11614-S186246863006580758.cnf
0624078062258a4fc6b5d92dbdd59b4e RandomSat/unif-k5-r21.117-v560-c11826-S6113888489530627006.cnf
a48b20442c420fd4915f61878e656d89 RandomSat/unif-k5-r21.117-v570-c12037-S5912930194287917092.cnf
246714dd04c748137864001be020dbbb RandomSat/unif-k5-r21.117-v580-c12248-S8750973933177740835.cnf
123552619c1e732674b59eac47fe58dd RandomSat/unif-k5-r21.117-v590-c12459-S7573250528942806659.cnf
1f2080e9f34733a404d3ebf859ac8285 RandomSat/unif-k7-r55.0-v50000-c2750000-S5928219104894738238.cnf
c1365c67c72871e27a498d253d5501b6 RandomSat/unif-k7-r56.0-v50000-c2800000-S1020193713096009046.cnf
d00e765593839c50dab995f0a6f9af8b RandomSat/unif-k7-r57.0-v50000-c2850000-S1399707120812171307.cnf
79c9e93b60ac342b1e0ef4003aecdbc0 RandomSat/unif-k7-r58.0-v50000-c2900000-S1614618949171323306.cnf
a9d6803ac9ed56ca7b41d38d8b3b8ae5 RandomSat/unif-k7-r59.0-v50000-c2950000-S1742376126204682694.cnf
1b78d18851cc45d269e919dcfd002bf4 RandomSat/unif-k7-r60.0-v50000-c3000000-S3128218200131557100.cnf
d203c214803838b090c0c8f43afd8520 RandomSat/unif-k7-r61.0-v50000-c3050000-S9039998776141714607.cnf
5ae6105a74aa3e56f22439882930e2d3 RandomSat/unif-k7-r62.0-v50000-c3100000-S9217612314241081999.cnf
a8f54df2f3553d40b85df03d1ae72b0a RandomSat/unif-k7-r63.0-v50000-c3150000-S6462416862816735133.cnf
41279fafddc15d65d24d73fc6bb750ff RandomSat/unif-k7-r64.0-v50000-c3200000-S6630028521171420326.cnf
f474e9825d049133d6f5d9ed26ba1768 RandomSat/unif-k7-r65.0-v50000-c3250000-S6707374378344210225.cnf
e791890526a28b4dae3b682df063bea4 RandomSat/unif-k7-r66.0-v50000-c3300000-S2919446241863213144.cnf
c9bd4165fdaf2e58a242b984aa0f7427 RandomSat/unif-k7-r67.0-v50000-c3350000-S6896414159551874772.cnf
db0bb20c7b40fed4d3797d4ebe3d058a RandomSat/unif-k7-r68.0-v50000-c3400000-S81857221965770705.cnf
efb389ae35e3bd6651484d67319638a9 RandomSat/unif-k7-r69.0-v50000-c3450000-S1806609754495600727.cnf
7c5c9f54ef5f0fc72353ebcb3a91d61a RandomSat/unif-k7-r70.0-v50000-c3500000-S5827223170406370310.cnf
3c9340c78d1fe5394938f7850a02d726 RandomSat/unif-k7-r71.0-v50000-c3550000-S8971407881062146799.cnf
b7d3d2a9569bd4671ad2b4c1eefd5815 RandomSat/unif-k7-r72.0-v50000-c3600000-S6663736563807226894.cnf
a0ad381b078c40941c35bbd52a3edc33 RandomSat/unif-k7-r73.0-v50000-c3650000-S1823857581649076256.cnf
d356fe1072bed6a9fa9768f59ce0fd6b RandomSat/unif-k7-r74.0-v50000-c3700000-S4952867864259826471.cnf
24ee5b74923a901b7e7a30225a53aaf6 RandomSat/unif-k7-r87.79-v100-c8779-S2145523309077190146.cnf
861ebe63f01c024d331fd39eb1212e59 RandomSat/unif-k7-r87.79-v102-c8955-S181731912191171253.cnf
0c5b8d34df41270b357c469217e50826 RandomSat/unif-k7-r87.79-v104-c9130-S8650001310722304120.cnf
8cbd889b056dfe95ce78db1975456707 RandomSat/unif-k7-r87.79-v106-c9306-S5781106647983798037.cnf
b00b2c94d289f609d91309f4ef64f650 RandomSat/unif-k7-r87.79-v108-c9481-S776478569285878983.cnf
068730a288574414f4016ff71df03a28 RandomSat/unif-k7-r87.79-v110-c9657-S8591011949168790975.cnf
0e239dff772077cab7cdfb92cee46f72 RandomSat/unif-k7-r87.79-v112-c9832-S5884499800767972829.cnf
7e34876eb2aea8d5e0bb45b184940031 RandomSat/unif-k7-r87.79-v114-c10008-S832833634892277646.cnf
d29cb211eab5894213a76e5f035928e7 RandomSat/unif-k7-r87.79-v116-c10184-S5983877369298598053.cnf
40d36903a563a9302d0777fade189ee7 RandomSat/unif-k7-r87.79-v118-c10359-S8670567566829115639.cnf
4188be849fdb867c51c53dff3984368a RandomSat/unif-k7-r87.79-v120-c10535-S6777850250029416920.cnf
3e6e99a438e4fb780c932dd42221e4b8 RandomSat/unif-k7-r87.79-v122-c10710-S721212327740487904.cnf
274aec421ba300c653ba81afc3ab6567 RandomSat/unif-k7-r87.79-v124-c10886-S955812254650625435.cnf
172a3ca3869ba1835bbbd8456bb9cc29 RandomSat/unif-k7-r87.79-v126-c11062-S6841915504745051741.cnf
ab0293194ae28944846c02ff9f27a689 RandomSat/unif-k7-r87.79-v128-c11237-S9012044344004290594.cnf
0fc7eaa03f4e66935ad12e7a21a4d92f RandomSat/unif-k7-r87.79-v130-c11413-S4604548268336340649.cnf
b9a717d5832e0eab7ae5919d3c751cb0 RandomSat/unif-k7-r87.79-v132-c11588-S2779865580301877500.cnf
e80b4a47a459d878436b1bfeabbe5a5a RandomSat/unif-k7-r87.79-v134-c11764-S2699251313153212556.cnf
2c7ec06e695f86258647cc0432c3cc4f RandomSat/unif-k7-r87.79-v136-c11939-S3005146981255384593.cnf
76bcfabc6cd5204dcfe9bd26ee4ef33f RandomSat/unif-k7-r87.79-v138-c12115-S8090961344443232648.cnf
b3281e87d0b92f7e12fd5e896084aca4 RandomSat/unif-k7-r87.79-v140-c12291-S8407285191916420791.cnf
eebadd0c39819e1031743989ba3d5906 RandomSat/unif-k7-r87.79-v142-c12466-S7018489938450341011.cnf
72a66a690e50cc75529ea9c4d3ca11b5 RandomSat/unif-k7-r87.79-v144-c12642-S4530367004457030622.cnf
97a95cd983dbd683bf8dfdaf3f1bc6bb RandomSat/unif-k7-r87.79-v146-c12817-S6755248549888269711.cnf
8b21e4db69407b4b9e2bca3df9407886 RandomSat/unif-k7-r87.79-v148-c12993-S4349332889313773123.cnf
6f9e8be13730c2a2079e1718f6e935bb RandomSat/unif-k7-r87.79-v150-c13169-S7328247537138364913.cnf
33497eaded8572543edce4f366fd2f1d RandomSat/unif-k7-r87.79-v152-c13344-S5711904626256400843.cnf
80b427ccc77db6614556f718d9f7c82f RandomSat/unif-k7-r87.79-v154-c13520-S391204353939768317.cnf
a8741677f336c8f54d85f5d1d3ff03ad RandomSat/unif-k7-r87.79-v156-c13695-S7708278106701346070.cnf
0220500e78320f912ff759e6a3024b33 RandomSat/unif-k7-r87.79-v158-c13871-S4437156695521636652.cnf
accb5742171cd0baff6b543132de792f RandomSat/unif-k7-r87.79-v160-c14046-S4995813892174227007.cnf
404335099c202a7e687d55de5a5b2a5a RandomSat/unif-k7-r87.79-v162-c14222-S3855942956313502027.cnf
a209ab4b83b5b7bbaf79e76c728d6d1c RandomSat/unif-k7-r87.79-v164-c14398-S7505035043720860225.cnf
42a8d0b8a760fab06d7c62ccb2e6c088 RandomSat/unif-k7-r87.79-v166-c14573-S7660292311843463928.cnf
4b472b78488e3ce2744ed10565b6013d RandomSat/unif-k7-r87.79-v168-c14749-S7028143986999545775.cnf
8c0c0d4b55c7de3b434c35b0efcfd4ba RandomSat/unif-k7-r87.79-v90-c7901-S1564177665626245980.cnf
872ba3675e87a7e341b6ccb84784c921 RandomSat/unif-k7-r87.79-v92-c8077-S1578265726355776924.cnf
368d39f0624305b571d0b4a0c9c4c431 RandomSat/unif-k7-r87.79-v94-c8252-S2945745782081751086.cnf
32af94b0a28fe952b9d29de0f845f54f RandomSat/unif-k7-r87.79-v96-c8428-S3356823559929836494.cnf
b5ee996939794c252a25e12ce3759264 RandomSat/unif-k7-r87.79-v98-c8603-S7859922913100031057.cnf
